…
``` r
cv_bwt
```

    ## # A tibble: 100 x 9
    ##    train test  .id   bw_model1 bw_model2 bw_model3 rmse_model1 rmse_model2
    ##    <lis> <lis> <chr> <list>    <list>    <list>          <dbl>       <dbl>
    ##  1 <res… <res… 001   <lm>      <lm>      <lm>             467.        338.
    ##  2 <res… <res… 002   <lm>      <lm>      <lm>             459.        343.
    ##  3 <res… <res… 003   <lm>      <lm>      <lm>             445.        350.
    ##  4 <res… <res… 004   <lm>      <lm>      <lm>             443.        328.
    ##  5 <res… <res… 005   <lm>      <lm>      <lm>             424.        356.
    ##  6 <res… <res… 006   <lm>      <lm>      <lm>             443.        332.
    ##  7 <res… <res… 007   <lm>      <lm>      <lm>             430.        319.
    ##  8 <res… <res… 008   <lm>      <lm>      <lm>             452.        352.
    ##  9 <res… <res… 009   <lm>      <lm>      <lm>             456.        332.
    ## 10 <res… <res… 010   <lm>      <lm>      <lm>             443.        356.
    ## # … with 90 more rows, and 1 more variable: rmse_model3 <dbl>
